{
  "full_name": "Renaud de Chivré",
  "email": "renaud.de-chivre@noan.me",
  "gitlab_username": "renal31",
  "project_name": "py27-template",
  "project_slug": "{{ cookiecutter.project_name.lower().replace('-', '_').replace('-', '_') }}",
  "project_title": "{{ cookiecutter.project_name.replace('-', ' ').title() }}",
  "project_short_description": "Python Boilerplate contains all the boilerplate you need to create a modern Python 2.7 package.",
  "version": "0.1.0",
  "open_source_license": [
    "MIT",
    "BSD",
    "ISC",
    "Apache Software License 2.0",
    "GNU General Public License v3",
    "Not open source"
  ]
}
